{
	"file_info" : [
		"last updated: 2014-06-16 1552",
		"file: PITTS_Letterhead_Revised 9 June.docx"
	],
	"bullets" : [
		{
			"title" : "hometown",
			"content" : "Nashua, New Hampshire"
		},
		{
			"title" : "enlistment date",
			"content" : "January, 2003"
		},
		{
			"title" : "military occupation (mos)",
			"content" : "13 F - Forward Observer"
		},
		{
			"title" : "born",
			"content" : "1985"
		},
		{
			"title" : "unit",
			"content" : "Chosen Companu, 2nd Battalion (Airborne), 503rd Infantry Regiment, 173rd Airborne Brigade"
		},
		{
			"title" : "deployments",
			"content" : "Operation Enduring Freedom VI & VIII, Afghanistan"
		}
		
	],
	"biography" : [
		"Staff Sgt. Ryan Pitts joined the Army in 2003, at the age of 17 under the delayed entry program. He attended basic training and advanced individual training at Ft. Sill, Oklahoma."
		"Pitts then went to the U.S. Army Airborne School at Fort Benning, Ga., before being assigned as a radio telephone operator for the 4th Battalion, 319th Field Artillery Regiment and 173rd Airborne Brigade at Camp Ederle, Italy from 2004-2005.  He remained headquartered at Camp Ederle as part of the 2nd Battalion, 503rd Infantry Regiment, 173rd Abn. Bde. from 2006 to 2009.",
		"While assigned to the 173rd, Pitts deployed twice to Afghanistan.  His first deployment in 2005 lasted 12 months.  His final deployment spanned 15 months beginning in 2007.  Pitts departed the active-duty Army in 2009.",
		"His civilian education includes a Bachelor of Arts degree in Business from the University of New Hampshire at Manchester. He currently resides in Nashua, New Hampshire where he is in business development for the computer software industry.",
		"His military education includes the U.S. Army Airborne School, U.S. Army Pathfinder Course, and the Warrior Leader Course.",
		"Pitts’ other awards and decorations include the Bronze Star Medal with Valor, Meritorious Service Medal, the Purple Heart, the Army Commendation Medal with three oak leaf clusters, the Army Achievement Medal with one oak leaf cluster, the Army Good Conduct Medal - two awards, the National Defense Service Medal, the Afghanistan Campaign Medal with two campaign stars, the Global War on Terrorism Service Medal, the Non-Commissioned Officer Professional Development Ribbon, the Army Service Ribbon, the Overseas Service Ribbon with numeral 4 device, the NATO Medal, the Combat Action Badge, the Parachutists Badge, the Pathfinder Badge, the Presidential Unit Citation, and the Valorous Unit Award."
	],
	"units" : [
		{
			"id" : "2nd_battalion",
			"name" : "2ND Battalion (Airborne), 503rd Infantry Regiment",
			"pull_quote" : "The colors, blue and white, are those of Infantry. The inverted triangle terminating in the broken fort symbolizes the drop on Corregidor, whereas the three parachutes represent the three other battle honors awarded the organization.",
			"text" : [
				"tab 1 textLorem ipsum dolor sit amet, consectetur adipisicing elit, sed do eiusmod tempor incididunt ut labore et dolore magna aliqua. Ut enim ad minim veniam, quis nostrud exercitation ullamco laboris nisi ut aliquip ex ea commodo consequat. Duis aute irure dolor in reprehenderit in voluptate velit esse cillum dolore eu fugiat nulla pariatur. Excepteur sint occaecat cupidatat non proident, sunt in culpa qui officia deserunt mollit anim id est laborum.",
				"Lorem ipsum dolor sit amet, consectetur adipisicing elit, sed do eiusmod tempor incididunt ut labore et dolore magna aliqua. Ut enim ad minim veniam, quis nostrud exercitation ullamco laboris nisi ut aliquip ex ea commodo consequat. Duis aute irure dolor in reprehenderit in voluptate velit esse cillum dolore eu fugiat nulla pariatur. Excepteur sint occaecat cupidatat non proident, sunt in culpa qui officia deserunt mollit anim id est laborum.",
				"Lorem ipsum dolor sit amet, consectetur adipisicing elit, sed do eiusmod tempor incididunt ut labore et dolore magna aliqua. Ut enim ad minim veniam, quis nostrud exercitation ullamco laboris nisi ut aliquip ex ea commodo consequat. Duis aute irure dolor in reprehenderit in voluptate velit esse cillum dolore eu fugiat nulla pariatur. Excepteur sint occaecat cupidatat non proident, sunt in culpa qui officia deserunt mollit anim id est laborum."
			]
		},
		{
			"id" : "173rd_airborne",
			"name" : "173rd Airborne Brigade Combat Team",
			"pull_quote" : "The parachute and wings refer to the airborne mission of the brigade. The sword pointing downward (implying from sky to ground) alludes to the combat assault jump made by the Brigade in February 1967, the first such jump made by any unit in Vietnam. The lightning flashes are also symbolic of the brigade's striking power and surprise and rapidity of movement.",
			"text" : [
				"tab 2 Lorem ipsum dolor sit amet, consectetur adipisicing elit, sed do eiusmod tempor incididunt ut labore et dolore magna aliqua. Ut enim ad minim veniam, quis nostrud exercitation ullamco laboris nisi ut aliquip ex ea commodo consequat. Duis aute irure dolor in reprehenderit in voluptate velit esse cillum dolore eu fugiat nulla pariatur. Excepteur sint occaecat cupidatat non proident, sunt in culpa qui officia deserunt mollit anim id est laborum.",
				"Lorem ipsum dolor sit amet, consectetur adipisicing elit, sed do eiusmod tempor incididunt ut labore et dolore magna aliqua. Ut enim ad minim veniam, quis nostrud exercitation ullamco laboris nisi ut aliquip ex ea commodo consequat. Duis aute irure dolor in reprehenderit in voluptate velit esse cillum dolore eu fugiat nulla pariatur. Excepteur sint occaecat cupidatat non proident, sunt in culpa qui officia deserunt mollit anim id est laborum.",
				"Lorem ipsum dolor sit amet, consectetur adipisicing elit, sed do eiusmod tempor incididunt ut labore et dolore magna aliqua. Ut enim ad minim veniam, quis nostrud exercitation ullamco laboris nisi ut aliquip ex ea commodo consequat. Duis aute irure dolor in reprehenderit in voluptate velit esse cillum dolore eu fugiat nulla pariatur. Excepteur sint occaecat cupidatat non proident, sunt in culpa qui officia deserunt mollit anim id est laborum."
			]
		}
	]
}